%YAML 1.1
%TAG !u! tag:unity3d.com,2011:
--- !u!114 &11400000
MonoBehaviour:
  m_ObjectHideFlags: 0
  m_CorrespondingSourceObject: {fileID: 0}
  m_PrefabInternal: {fileID: 0}
  m_GameObject: {fileID: 0}
  m_Enabled: 1
  m_EditorHideFlags: 0
  m_Script: {fileID: 11500000, guid: ec510001d4eac3c4c96086ddc91b2c5b, type: 3}
  m_Name: SteamVR_Input_ActionSet_buggy_In
  m_EditorClassIdentifier: 
  actionSet: {fileID: 0}
  listDirection: 0
  actions:
  - {fileID: 11400000, guid: bf896d8a91497e94f82afb7508a49ecc, type: 2}
  - {fileID: 11400000, guid: d99bcf176e2fb9a46af7ea646fb86823, type: 2}
  - {fileID: 11400000, guid: 8a740ef1881e0554d8a826536c34847a, type: 2}
  - {fileID: 11400000, guid: fe83c052cc1cd9b46b8cfe2f50300b52, type: 2}
  Steering: {fileID: 11400000, guid: bf896d8a91497e94f82afb7508a49ecc, type: 2}
  Throttle: {fileID: 11400000, guid: d99bcf176e2fb9a46af7ea646fb86823, type: 2}
  Brake: {fileID: 11400000, guid: 8a740ef1881e0554d8a826536c34847a, type: 2}
  Reset: {fileID: 11400000, guid: fe83c052cc1cd9b46b8cfe2f50300b52, type: 2}
